%YAML 1.1
%TAG !u! tag:unity3d.com,2011:
--- !u!1 &4815620411863608967
GameObject:
  m_ObjectHideFlags: 0
  m_CorrespondingSourceObject: {fileID: 0}
  m_PrefabInstance: {fileID: 0}
  m_PrefabAsset: {fileID: 0}
  serializedVersion: 6
  m_Component:
  - component: {fileID: 3835369215753635872}
  - component: {fileID: 1222423397926557268}
  m_Layer: 0
  m_Name: HazardSpawner
  m_TagString: Untagged
  m_Icon: {fileID: 0}
  m_NavMeshLayer: 0
  m_StaticEditorFlags: 0
  m_IsActive: 1
--- !u!4 &3835369215753635872
Transform:
  m_ObjectHideFlags: 0
  m_CorrespondingSourceObject: {fileID: 0}
  m_PrefabInstance: {fileID: 0}
  m_PrefabAsset: {fileID: 0}
  m_GameObject: {fileID: 4815620411863608967}
  m_LocalRotation: {x: 0, y: 0, z: 0, w: 1}
  m_LocalPosition: {x: 0, y: 0, z: 0}
  m_LocalScale: {x: 1, y: 1, z: 1}
  m_Children: []
  m_Father: {fileID: 0}
  m_RootOrder: 0
  m_LocalEulerAnglesHint: {x: 0, y: 0, z: 0}
--- !u!114 &1222423397926557268
MonoBehaviour:
  m_ObjectHideFlags: 0
  m_CorrespondingSourceObject: {fileID: 0}
  m_PrefabInstance: {fileID: 0}
  m_PrefabAsset: {fileID: 0}
  m_GameObject: {fileID: 4815620411863608967}
  m_Enabled: 1
  m_EditorHideFlags: 0
  m_Script: {fileID: 11500000, guid: 26043f3f0b70c504889fdd04be1421d9, type: 3}
  m_Name: 
  m_EditorClassIdentifier: 
  m_HazardPrefab:
  - {fileID: 4087394778643025936, guid: ec4061603e8c38b4fadd728a84824a27, type: 3}
  - {fileID: 4589122955289993638, guid: cbcdb0704993de14cb891b131a1e4f4e, type: 3}
  - {fileID: 767329741410267368, guid: d3130fdb4810aa84b916977751727aac, type: 3}
  - {fileID: 2511314390268869547, guid: e40276c411ebb1a42915a9ae24e51eab, type: 3}
  - {fileID: 4410631001064004640, guid: 4734c5cd1f3003a4a947519d8b2607cb, type: 3}
  m_ShipDefaultSpeed: 3
  m_Ship: {fileID: 0}
  m_XMarginRight: 5
  m_YPosSpawn: 8
  m_TimeBetweenPhase: 30
