%YAML 1.1
%TAG !u! tag:unity3d.com,2011:
--- !u!1001 &7601967329775714872
PrefabInstance:
  m_ObjectHideFlags: 0
  serializedVersion: 2
  m_Modification:
    m_TransformParent: {fileID: 0}
    m_Modifications:
    - target: {fileID: 5614266400198072335, guid: ca910a05eb8c4ac498d4a4c2c361e521,
        type: 3}
      propertyPath: m_Name
      value: Module_Shield Variant
      objectReference: {fileID: 0}
    - target: {fileID: 3755027783426981456, guid: ca910a05eb8c4ac498d4a4c2c361e521,
        type: 3}
      propertyPath: m_LocalPosition.x
      value: 1
      objectReference: {fileID: 0}
    - target: {fileID: 3755027783426981456, guid: ca910a05eb8c4ac498d4a4c2c361e521,
        type: 3}
      propertyPath: m_LocalPosition.y
      value: 0
      objectReference: {fileID: 0}
    - target: {fileID: 3755027783426981456, guid: ca910a05eb8c4ac498d4a4c2c361e521,
        type: 3}
      propertyPath: m_LocalPosition.z
      value: 0
      objectReference: {fileID: 0}
    - target: {fileID: 3755027783426981456, guid: ca910a05eb8c4ac498d4a4c2c361e521,
        type: 3}
      propertyPath: m_LocalRotation.x
      value: 0
      objectReference: {fileID: 0}
    - target: {fileID: 3755027783426981456, guid: ca910a05eb8c4ac498d4a4c2c361e521,
        type: 3}
      propertyPath: m_LocalRotation.y
      value: 0
      objectReference: {fileID: 0}
    - target: {fileID: 3755027783426981456, guid: ca910a05eb8c4ac498d4a4c2c361e521,
        type: 3}
      propertyPath: m_LocalRotation.z
      value: 0
      objectReference: {fileID: 0}
    - target: {fileID: 3755027783426981456, guid: ca910a05eb8c4ac498d4a4c2c361e521,
        type: 3}
      propertyPath: m_LocalRotation.w
      value: 1
      objectReference: {fileID: 0}
    - target: {fileID: 3755027783426981456, guid: ca910a05eb8c4ac498d4a4c2c361e521,
        type: 3}
      propertyPath: m_RootOrder
      value: 0
      objectReference: {fileID: 0}
    - target: {fileID: 3755027783426981456, guid: ca910a05eb8c4ac498d4a4c2c361e521,
        type: 3}
      propertyPath: m_LocalEulerAnglesHint.x
      value: 0
      objectReference: {fileID: 0}
    - target: {fileID: 3755027783426981456, guid: ca910a05eb8c4ac498d4a4c2c361e521,
        type: 3}
      propertyPath: m_LocalEulerAnglesHint.y
      value: 0
      objectReference: {fileID: 0}
    - target: {fileID: 3755027783426981456, guid: ca910a05eb8c4ac498d4a4c2c361e521,
        type: 3}
      propertyPath: m_LocalEulerAnglesHint.z
      value: 0
      objectReference: {fileID: 0}
    - target: {fileID: 3807594359203820433, guid: ca910a05eb8c4ac498d4a4c2c361e521,
        type: 3}
      propertyPath: m_ActionType
      value: 1
      objectReference: {fileID: 0}
    - target: {fileID: 3807594359203820433, guid: ca910a05eb8c4ac498d4a4c2c361e521,
        type: 3}
      propertyPath: m_NormalDegradationRate
      value: 0.4
      objectReference: {fileID: 0}
    - target: {fileID: 3807594359203820433, guid: ca910a05eb8c4ac498d4a4c2c361e521,
        type: 3}
      propertyPath: m_RapidDegradationRate
      value: 2
      objectReference: {fileID: 0}
    - target: {fileID: 3807594359203820433, guid: ca910a05eb8c4ac498d4a4c2c361e521,
        type: 3}
      propertyPath: m_ReparationRate
      value: 1.5
      objectReference: {fileID: 0}
    m_RemovedComponents: []
  m_SourcePrefab: {fileID: 100100000, guid: ca910a05eb8c4ac498d4a4c2c361e521, type: 3}
